{
    "border": "pixel",
    "current_border_width": 0,
    "floating": "auto_off",
    "geometry": {
       "height": 1046,
       "width": 1886,
       "x": 0,
       "y": 0
    },
    "name": "keepassxc",
    "percent": 1,
    "swallows": [
       {
       "class": "keepassxc"
       }
    ],
    "type": "con"
}
